…
###### Part 2: Tidy datasets

``` r
library("dplyr")
library(tidyverse)
library(readxl)
tsunami_dataset <- read_excel("C:/Users/Bhoomika Venkatesh/Downloads/R code SDS328 comp bio/tsunami_dataset.xlsx")
View(tsunami_dataset)
Average_Temperature_of_Cities<-read_excel("C:/Users/Bhoomika Venkatesh/Downloads/R code SDS328 comp bio/Average Temperature of Cities.xlsx")
View(Average_Temperature_of_Cities)
avg_temps <- Average_Temperature_of_Cities%>%pivot_longer(Jan:Dec,names_to = "Month",values_to="temp",values_drop_na=TRUE) #A new variable called avg_temps was created for an update, tidier version of the average-temperature_of_cities dataset and was piped with the pivot_longer() function in order to make datasets longer by increasing the number of rows and decreasing the number of columns. There is now a new column called "Month" with Jan-Dec as well as another new column called "Temp (in degrees Celsius)" containing all the values. 
avg_temps #This pulls up the newly created tidy dataset called avg_temps. 
```

    ## # A tibble: 5,412 x 6
    ##    Country City    Year             Continent Month temp            
    ##    <chr>   <chr>   <chr>            <chr>     <chr> <chr>           
    ##  1 Algeria Algiers "17.4\r\n(63.3)" AFRICA    Jan   "11.2\r\n(52.2)"
    ##  2 Algeria Algiers "17.4\r\n(63.3)" AFRICA    Feb   "11.9\r\n(53.4)"
    ##  3 Algeria Algiers "17.4\r\n(63.3)" AFRICA    Mar   "12.8\r\n(55.0)"
    ##  4 Algeria Algiers "17.4\r\n(63.3)" AFRICA    Apr   "14.7\r\n(58.5)"
    ##  5 Algeria Algiers "17.4\r\n(63.3)" AFRICA    May   "17.7\r\n(63.9)"
    ##  6 Algeria Algiers "17.4\r\n(63.3)" AFRICA    Jun   "21.3\r\n(70.3)"
    ##  7 Algeria Algiers "17.4\r\n(63.3)" AFRICA    Jul   "24.6\r\n(76.3)"
    ##  8 Algeria Algiers "17.4\r\n(63.3)" AFRICA    Aug   "25.2\r\n(77.4)"
    ##  9 Algeria Algiers "17.4\r\n(63.3)" AFRICA    Sep   "23.2\r\n(73.8)"
    ## 10 Algeria Algiers "17.4\r\n(63.3)" AFRICA    Oct   "19.4\r\n(66.9)"
    ## # ... with 5,402 more rows

``` r
avg_temps1 <- avg_temps%>% separate(col=Year,sep='\\s', into=c("annual_temp","rest"))%>%
  separate(col= temp , into=c('monthly_temp','leftovers'),
            sep = '\\s', extra='merge') %>%
  select(-c(rest,leftovers)) #this removes the fahrenheit values and the parantheses they are in from the annual and monthly temperatures. The new columns with just the temperatures in Celsius would be the 'monthly_temp' and 'annual_temp' so it is tidier. 
avg_temps1
```

    ## # A tibble: 5,412 x 6
    ##    Country City    annual_temp Continent Month monthly_temp
    ##    <chr>   <chr>   <chr>       <chr>     <chr> <chr>       
    ##  1 Algeria Algiers 17.4        AFRICA    Jan   11.2        
    ##  2 Algeria Algiers 17.4        AFRICA    Feb   11.9        
    ##  3 Algeria Algiers 17.4        AFRICA    Mar   12.8        
    ##  4 Algeria Algiers 17.4        AFRICA    Apr   14.7        
    ##  5 Algeria Algiers 17.4        AFRICA    May   17.7        
    ##  6 Algeria Algiers 17.4        AFRICA    Jun   21.3        
    ##  7 Algeria Algiers 17.4        AFRICA    Jul   24.6        
    ##  8 Algeria Algiers 17.4        AFRICA    Aug   25.2        
    ##  9 Algeria Algiers 17.4        AFRICA    Sep   23.2        
    ## 10 Algeria Algiers 17.4        AFRICA    Oct   19.4        
    ## # ... with 5,402 more rows
…
###### Part3: Join/merge datasets

``` r
tsunami <- tsunami_dataset%>%select(-Comments,-Url,-Day,-Hour,-Minute,-Latitude,-Longitude,-COUNTRY,-Houses_Total_Description,-Deaths_Total_Description,-`Damage_ Total_Description`,-Location_name,-Region) #Select() dplyr function selects listed variables and the ("-") deletes them from the dataset altogether. Renamed to new dataset called tsunami that will be used moving forward. 
average_temp <- avg_temps1%>%select(-City,-Continent) #The new variable average_temp was created to be used moving forward. The new tidy dataset avg_temps from part 2 was used with the select() function to remove the columns that would not be used in the final dataset. 
tsunami_temps<-average_temp%>%inner_join(tsunami,by=c("Country"="Country")) #The inner_join() function was used with the newly created average_temp variable and tsunami variable to match the common variable 'Country' since that merges the two datasets into one. 
tsunami_temps#This is the new variable that pulls up the merged dataset with the variables.
```

    ## # A tibble: 231,900 x 11
    ##    Country annual_temp Month.x monthly_temp  Year Month.y Cause Event_validity
    ##    <chr>   <chr>       <chr>   <chr>        <dbl>   <dbl> <chr> <chr>         
    ##  1 Algeria 17.4        Jan     11.2          2003       5 Eart~ Definite Tsun~
    ##  2 Algeria 17.4        Jan     11.2          1989      10 Eart~ Questionable ~
    ##  3 Algeria 17.4        Jan     11.2          1980      10 Eart~ Definite Tsun~
    ##  4 Algeria 17.4        Jan     11.2          1802      11 Eart~ Probable Tsun~
    ##  5 Algeria 17.4        Jan     11.2          1790      10 Eart~ Probable Tsun~
    ##  6 Algeria 17.4        Jan     11.2          1365       1 Eart~ Probable Tsun~
    ##  7 Algeria 17.4        Jan     11.2          1856       8 Eart~ Probable Tsun~
    ##  8 Algeria 17.4        Jan     11.2          1857       5 Eart~ Questionable ~
    ##  9 Algeria 17.4        Jan     11.2          1856       8 Eart~ Probable Tsun~
    ## 10 Algeria 17.4        Jan     11.2          1954       9 Eart~ Definite Tsun~
    ## # ... with 231,890 more rows, and 3 more variables: Eq_Magnitude <dbl>,
    ## #   Eq_Depth <dbl>, Ts_Intensity <dbl>
…
``` r
install.packages("psych,",repos="http://cran.us.r-project.org")
library("psych")
library("kableExtra")

tsunami_yeartemp<- filter(tsunami_temps,Year>0) #the filter function was used to clean up the Year column since there were negative values from the B.C. times. values for year greater than 0 or positive were filtered out and saved into a new variable 'tsunami_yeartemp'. 
tsunami_temp<- tsunami_yeartemp%>%filter(!is.na(Ts_Intensity)) #use filter function again to drop NA values from the Ts_Intensity column so summary stats can be run on it later. It is saved into a new variable called tsunami_temp from tsunami_yeartemp previously.  
tsunami_temps1 <- tsunami_temp%>%filter(!is.na(Eq_Magnitude))
tsunami_temps2 <- tsunami_temps1%>%filter(!is.na(Eq_Depth)) #The final datatset to be used for the rest of the parts is tsunami_temps2 and has all the dbl functions from the tsunami dataset with its NA values filtered out and the year values are positive. 
filter(tsunami_temps2,Country=='China')
```

    ## # A tibble: 132 x 11
    ##    Country annual_temp Month.x monthly_temp  Year Month.y Cause Event_validity
    ##    <chr>   <chr>       <chr>   <chr>        <dbl>   <dbl> <chr> <chr>         
    ##  1 China   12.9        Jan     -3.1          1918       2 Eart~ Definite Tsun~
    ##  2 China   12.9        Feb     0.3           1918       2 Eart~ Definite Tsun~
    ##  3 China   12.9        Mar     6.7           1918       2 Eart~ Definite Tsun~
    ##  4 China   12.9        Apr     14.8          1918       2 Eart~ Definite Tsun~
    ##  5 China   12.9        May     20.8          1918       2 Eart~ Definite Tsun~
    ##  6 China   12.9        Jun     24.9          1918       2 Eart~ Definite Tsun~
    ##  7 China   12.9        Jul     26.7          1918       2 Eart~ Definite Tsun~
    ##  8 China   12.9        Aug     25.5          1918       2 Eart~ Definite Tsun~
    ##  9 China   12.9        Sep     20.8          1918       2 Eart~ Definite Tsun~
    ## 10 China   12.9        Oct     13.7          1918       2 Eart~ Definite Tsun~
    ## # ... with 122 more rows, and 3 more variables: Eq_Magnitude <dbl>,
    ## #   Eq_Depth <dbl>, Ts_Intensity <dbl>

``` r
filter(tsunami_temps2,Ts_Intensity<=5.0 & Month.y==10) #filters out values when tsunami intensity is less than or equal to 5.0 scale and the month is october (or 10). 
```

    ## # A tibble: 2,112 x 11
    ##    Country annual_temp Month.x monthly_temp  Year Month.y Cause Event_validity
    ##    <chr>   <chr>       <chr>   <chr>        <dbl>   <dbl> <chr> <chr>         
    ##  1 Algeria 17.4        Jan     11.2          1980      10 Eart~ Definite Tsun~
    ##  2 Algeria 17.4        Feb     11.9          1980      10 Eart~ Definite Tsun~
    ##  3 Algeria 17.4        Mar     12.8          1980      10 Eart~ Definite Tsun~
    ##  4 Algeria 17.4        Apr     14.7          1980      10 Eart~ Definite Tsun~
    ##  5 Algeria 17.4        May     17.7          1980      10 Eart~ Definite Tsun~
    ##  6 Algeria 17.4        Jun     21.3          1980      10 Eart~ Definite Tsun~
    ##  7 Algeria 17.4        Jul     24.6          1980      10 Eart~ Definite Tsun~
    ##  8 Algeria 17.4        Aug     25.2          1980      10 Eart~ Definite Tsun~
    ##  9 Algeria 17.4        Sep     23.2          1980      10 Eart~ Definite Tsun~
    ## 10 Algeria 17.4        Oct     19.4          1980      10 Eart~ Definite Tsun~
    ## # ... with 2,102 more rows, and 3 more variables: Eq_Magnitude <dbl>,
    ## #   Eq_Depth <dbl>, Ts_Intensity <dbl>
…
    ##        Country    annual_temp        Month.x   monthly_temp           Year 
    ##    "character"      "numeric"    "character"      "numeric"      "numeric" 
    ##        Month.y          Cause Event_validity   Eq_Magnitude       Eq_Depth 
    ##      "numeric"    "character"    "character"      "numeric"      "numeric" 
    ##   Ts_Intensity 
    ##      "numeric"

``` r
tsunami_temps2 #This new dataset now has columns 'monthly_temp' and 'annual_temp' both as numeric variables and not characters anymore. These can be used in summary statistics. 
```

    ## # A tibble: 39,192 x 11
    ##    Country annual_temp Month.x monthly_temp  Year Month.y Cause Event_validity
    ##    <chr>         <dbl> <chr>          <dbl> <dbl>   <dbl> <chr> <chr>         
    ##  1 Algeria        17.4 Jan             11.2  2003       5 Eart~ Definite Tsun~
    ##  2 Algeria        17.4 Jan             11.2  1980      10 Eart~ Definite Tsun~
    ##  3 Algeria        17.4 Feb             11.9  2003       5 Eart~ Definite Tsun~
    ##  4 Algeria        17.4 Feb             11.9  1980      10 Eart~ Definite Tsun~
    ##  5 Algeria        17.4 Mar             12.8  2003       5 Eart~ Definite Tsun~
    ##  6 Algeria        17.4 Mar             12.8  1980      10 Eart~ Definite Tsun~
    ##  7 Algeria        17.4 Apr             14.7  2003       5 Eart~ Definite Tsun~
    ##  8 Algeria        17.4 Apr             14.7  1980      10 Eart~ Definite Tsun~
    ##  9 Algeria        17.4 May             17.7  2003       5 Eart~ Definite Tsun~
    ## 10 Algeria        17.4 May             17.7  1980      10 Eart~ Definite Tsun~
    ## # ... with 39,182 more rows, and 3 more variables: Eq_Magnitude <dbl>,
    ## #   Eq_Depth <dbl>, Ts_Intensity <dbl>

``` r
#Select
select(tsunami_temps2,Ts_Intensity,monthly_temp,everything()) #selects variables Tsunami intensity and monhtly_temp to be moved to the front of the dataset when viewed. 
```

    ## # A tibble: 39,192 x 11
    ##    Ts_Intensity monthly_temp Country annual_temp Month.x  Year Month.y Cause
    ##           <dbl>        <dbl> <chr>         <dbl> <chr>   <dbl>   <dbl> <chr>
    ##  1          1.5         11.2 Algeria        17.4 Jan      2003       5 Eart~
    ##  2          2           11.2 Algeria        17.4 Jan      1980      10 Eart~
    ##  3          1.5         11.9 Algeria        17.4 Feb      2003       5 Eart~
    ##  4          2           11.9 Algeria        17.4 Feb      1980      10 Eart~
    ##  5          1.5         12.8 Algeria        17.4 Mar      2003       5 Eart~
    ##  6          2           12.8 Algeria        17.4 Mar      1980      10 Eart~
    ##  7          1.5         14.7 Algeria        17.4 Apr      2003       5 Eart~
    ##  8          2           14.7 Algeria        17.4 Apr      1980      10 Eart~
    ##  9          1.5         17.7 Algeria        17.4 May      2003       5 Eart~
    ## 10          2           17.7 Algeria        17.4 May      1980      10 Eart~
    ## # ... with 39,182 more rows, and 3 more variables: Event_validity <chr>,
    ## #   Eq_Magnitude <dbl>, Eq_Depth <dbl>

``` r
select(tsunami_temps2,1,4,6,11) #selects variable indexes instead of writing out all the variable names individually. 
```

    ## # A tibble: 39,192 x 4
    ##    Country monthly_temp Month.y Ts_Intensity
    ##    <chr>          <dbl>   <dbl>        <dbl>
    ##  1 Algeria         11.2       5          1.5
    ##  2 Algeria         11.2      10          2  
    ##  3 Algeria         11.9       5          1.5
    ##  4 Algeria         11.9      10          2  
    ##  5 Algeria         12.8       5          1.5
    ##  6 Algeria         12.8      10          2  
    ##  7 Algeria         14.7       5          1.5
    ##  8 Algeria         14.7      10          2  
    ##  9 Algeria         17.7       5          1.5
    ## 10 Algeria         17.7      10          2  
    ## # ... with 39,182 more rows

``` r
#Arrange
arrange(tsunami_temps2,Month.y) #The Month.y variable from 1-12 is arranged chronologically from 1 to 12 in ascending order. 
```

    ## # A tibble: 39,192 x 11
    ##    Country annual_temp Month.x monthly_temp  Year Month.y Cause Event_validity
    ##    <chr>         <dbl> <chr>          <dbl> <dbl>   <dbl> <chr> <chr>         
    ##  1 Indone~        26.7 Jan             26.1  1843       1 Eart~ Definite Tsun~
    ##  2 Indone~        26.7 Jan             26.1  1840       1 Eart~ Questionable ~
    ##  3 Indone~        26.7 Jan             26.1  1907       1 Eart~ Definite Tsun~
    ##  4 Indone~        26.7 Jan             26.1  1965       1 Eart~ Definite Tsun~
    ##  5 Indone~        26.7 Jan             26.1  1994       1 Eart~ Definite Tsun~
    ##  6 Indone~        26.7 Jan             26.1  1996       1 Eart~ Definite Tsun~
    ##  7 Indone~        26.7 Jan             26.1  1852       1 Eart~ Probable Tsun~
    ##  8 Indone~        26.7 Feb             26.1  1843       1 Eart~ Definite Tsun~
    ##  9 Indone~        26.7 Feb             26.1  1840       1 Eart~ Questionable ~
    ## 10 Indone~        26.7 Feb             26.1  1907       1 Eart~ Definite Tsun~
    ## # ... with 39,182 more rows, and 3 more variables: Eq_Magnitude <dbl>,
    ## #   Eq_Depth <dbl>, Ts_Intensity <dbl>

``` r
arrange(tsunami_temps2,desc(Year)) #the variable 'Year' is selected to descend from highest year value to lowest year value from dataset 'tsunami_temps2' using arrange(). 
```

    ## # A tibble: 39,192 x 11
    ##    Country annual_temp Month.x monthly_temp  Year Month.y Cause Event_validity
    ##    <chr>         <dbl> <chr>          <dbl> <dbl>   <dbl> <chr> <chr>         
    ##  1 Algeria        17.4 Jan             11.2  2003       5 Eart~ Definite Tsun~
    ##  2 Algeria        17.4 Feb             11.9  2003       5 Eart~ Definite Tsun~
    ##  3 Algeria        17.4 Mar             12.8  2003       5 Eart~ Definite Tsun~
    ##  4 Algeria        17.4 Apr             14.7  2003       5 Eart~ Definite Tsun~
    ##  5 Algeria        17.4 May             17.7  2003       5 Eart~ Definite Tsun~
    ##  6 Algeria        17.4 Jun             21.3  2003       5 Eart~ Definite Tsun~
    ##  7 Algeria        17.4 Jul             24.6  2003       5 Eart~ Definite Tsun~
    ##  8 Algeria        17.4 Aug             25.2  2003       5 Eart~ Definite Tsun~
    ##  9 Algeria        17.4 Sep             23.2  2003       5 Eart~ Definite Tsun~
    ## 10 Algeria        17.4 Oct             19.4  2003       5 Eart~ Definite Tsun~
    ## # ... with 39,182 more rows, and 3 more variables: Eq_Magnitude <dbl>,
    ## #   Eq_Depth <dbl>, Ts_Intensity <dbl>

``` r
#Group_by
tsunami_temps2%>%group_by(Country,annual_temp,Ts_Intensity) #group_by() function used to put together country, annual_temp, and tsunami intensity values together. 
```

    ## # A tibble: 39,192 x 11
    ## # Groups:   Country, annual_temp, Ts_Intensity [1,404]
    ##    Country annual_temp Month.x monthly_temp  Year Month.y Cause Event_validity
    ##    <chr>         <dbl> <chr>          <dbl> <dbl>   <dbl> <chr> <chr>         
    ##  1 Algeria        17.4 Jan             11.2  2003       5 Eart~ Definite Tsun~
    ##  2 Algeria        17.4 Jan             11.2  1980      10 Eart~ Definite Tsun~
    ##  3 Algeria        17.4 Feb             11.9  2003       5 Eart~ Definite Tsun~
    ##  4 Algeria        17.4 Feb             11.9  1980      10 Eart~ Definite Tsun~
    ##  5 Algeria        17.4 Mar             12.8  2003       5 Eart~ Definite Tsun~
    ##  6 Algeria        17.4 Mar             12.8  1980      10 Eart~ Definite Tsun~
    ##  7 Algeria        17.4 Apr             14.7  2003       5 Eart~ Definite Tsun~
    ##  8 Algeria        17.4 Apr             14.7  1980      10 Eart~ Definite Tsun~
    ##  9 Algeria        17.4 May             17.7  2003       5 Eart~ Definite Tsun~
    ## 10 Algeria        17.4 May             17.7  1980      10 Eart~ Definite Tsun~
    ## # ... with 39,182 more rows, and 3 more variables: Eq_Magnitude <dbl>,
    ## #   Eq_Depth <dbl>, Ts_Intensity <dbl>

``` r
#Mutate
tsunami_temps2%>%mutate(Month.z=recode(Month.y, '1' ="Jan",'2'="Feb",'3'="Mar",'4'="April",'5'="May",'6'="June",'7'="July",'8'="August",'9'="September",'10'="October",'11'="November",'12'="December")) #A new variable called "Month.z" is created using the mutate() function from Month.y since 1-12 numbers represent the actual months of January to December. 
```

    ## # A tibble: 39,192 x 12
    ##    Country annual_temp Month.x monthly_temp  Year Month.y Cause Event_validity
    ##    <chr>         <dbl> <chr>          <dbl> <dbl>   <dbl> <chr> <chr>         
    ##  1 Algeria        17.4 Jan             11.2  2003       5 Eart~ Definite Tsun~
    ##  2 Algeria        17.4 Jan             11.2  1980      10 Eart~ Definite Tsun~
    ##  3 Algeria        17.4 Feb             11.9  2003       5 Eart~ Definite Tsun~
    ##  4 Algeria        17.4 Feb             11.9  1980      10 Eart~ Definite Tsun~
    ##  5 Algeria        17.4 Mar             12.8  2003       5 Eart~ Definite Tsun~
    ##  6 Algeria        17.4 Mar             12.8  1980      10 Eart~ Definite Tsun~
    ##  7 Algeria        17.4 Apr             14.7  2003       5 Eart~ Definite Tsun~
    ##  8 Algeria        17.4 Apr             14.7  1980      10 Eart~ Definite Tsun~
    ##  9 Algeria        17.4 May             17.7  2003       5 Eart~ Definite Tsun~
    ## 10 Algeria        17.4 May             17.7  1980      10 Eart~ Definite Tsun~
    ## # ... with 39,182 more rows, and 4 more variables: Eq_Magnitude <dbl>,
    ## #   Eq_Depth <dbl>, Ts_Intensity <dbl>, Month.z <chr>
…
