…
    ## Warning: package 'readxl' was built under R version 3.6.3

``` r
tsunami_dataset <- read_excel("C:/Users/Bhoomika Venkatesh/Downloads/R code SDS328 comp bio/tsunami_dataset.xlsx")
View(tsunami_dataset)
Average_Temperature_of_Cities<-read_excel("C:/Users/Bhoomika Venkatesh/Downloads/R code SDS328 comp bio/Average Temperature of Cities.xlsx")
View(Average_Temperature_of_Cities)
avg_temps <- Average_Temperature_of_Cities%>%pivot_longer(Jan:Dec,names_to = "Month",values_to="temp",values_drop_na=TRUE) #A new variable called avg_temps was created for an update, tidier version of the average-temperature_of_cities dataset and was piped with the pivot_longer() function in order to make datasets longer by increasing the number of rows and decreasing the number of columns. There is now a new column called "Month" with Jan-Dec as well as another new column called "Temp (in degrees Celsius)" containing all the values. 
avg_temps #This pulls up the newly created tidy dataset called avg_temps. 
```

    ## # A tibble: 5,412 x 6
    ##    Country City    Year             Continent Month temp            
    ##    <chr>   <chr>   <chr>            <chr>     <chr> <chr>           
    ##  1 Algeria Algiers "17.4\r\n(63.3)" AFRICA    Jan   "11.2\r\n(52.2)"
    ##  2 Algeria Algiers "17.4\r\n(63.3)" AFRICA    Feb   "11.9\r\n(53.4)"
    ##  3 Algeria Algiers "17.4\r\n(63.3)" AFRICA    Mar   "12.8\r\n(55.0)"
    ##  4 Algeria Algiers "17.4\r\n(63.3)" AFRICA    Apr   "14.7\r\n(58.5)"
    ##  5 Algeria Algiers "17.4\r\n(63.3)" AFRICA    May   "17.7\r\n(63.9)"
    ##  6 Algeria Algiers "17.4\r\n(63.3)" AFRICA    Jun   "21.3\r\n(70.3)"
    ##  7 Algeria Algiers "17.4\r\n(63.3)" AFRICA    Jul   "24.6\r\n(76.3)"
    ##  8 Algeria Algiers "17.4\r\n(63.3)" AFRICA    Aug   "25.2\r\n(77.4)"
    ##  9 Algeria Algiers "17.4\r\n(63.3)" AFRICA    Sep   "23.2\r\n(73.8)"
    ## 10 Algeria Algiers "17.4\r\n(63.3)" AFRICA    Oct   "19.4\r\n(66.9)"
    ## # ... with 5,402 more rows
``` r
avg_temps1 <- avg_temps%>% separate(col=Year,sep='\\s', into=c("annual_temp","rest"))%>%
  separate(col= temp , into=c('monthly_temp','leftovers'),
            sep = '\\s', extra='merge') %>%
  select(-c(rest,leftovers)) #this removes the fahrenheit values and the parantheses they are in from the annual and monthly temperatures. The new columns with just the temperatures in Celsius would be the 'monthly_temp' and 'annual_temp' so it is tidier. 
```

    ## Warning: Expected 2 pieces. Additional pieces discarded in 5412 rows [1, 2, 3,
    ## 4, 5, 6, 7, 8, 9, 10, 11, 12, 13, 14, 15, 16, 17, 18, 19, 20, ...].

``` r
avg_temps1
```

    ## # A tibble: 5,412 x 6
    ##    Country City    annual_temp Continent Month monthly_temp
    ##    <chr>   <chr>   <chr>       <chr>     <chr> <chr>       
    ##  1 Algeria Algiers 17.4        AFRICA    Jan   11.2        
    ##  2 Algeria Algiers 17.4        AFRICA    Feb   11.9        
    ##  3 Algeria Algiers 17.4        AFRICA    Mar   12.8        
    ##  4 Algeria Algiers 17.4        AFRICA    Apr   14.7        
    ##  5 Algeria Algiers 17.4        AFRICA    May   17.7        
    ##  6 Algeria Algiers 17.4        AFRICA    Jun   21.3        
    ##  7 Algeria Algiers 17.4        AFRICA    Jul   24.6        
    ##  8 Algeria Algiers 17.4        AFRICA    Aug   25.2        
    ##  9 Algeria Algiers 17.4        AFRICA    Sep   23.2        
    ## 10 Algeria Algiers 17.4        AFRICA    Oct   19.4        
    ## # ... with 5,402 more rows

``` r
# join/merge data 
tsunami <- tsunami_dataset%>%select(-Comments,-Url,-Day,-Hour,-Minute,-Latitude,-Longitude,-COUNTRY,-Houses_Total_Description,-Deaths_Total_Description,-`Damage_ Total_Description`,-Location_name,-Region) #Select() dplyr function selects listed variables and the ("-") deletes them from the dataset altogether. Renamed to new dataset called tsunami that will be used moving forward. 
average_temp <- avg_temps1%>%select(-City,-Continent) #The new variable average_temp was created to be used moving forward. The new tidy dataset avg_temps from part 2 was used with the select() function to remove the columns that would not be used in the final dataset. 
tsunami_temps<-average_temp%>%inner_join(tsunami,by=c("Country"="Country")) #The inner_join() function was used with the newly created average_temp variable and tsunami variable to match the common variable 'Country' since that merges the two datasets into one. 
tsunami_temps#This is the new variable that pulls up the merged dataset with the variables.
```

    ## # A tibble: 231,900 x 11
    ##    Country annual_temp Month.x monthly_temp  Year Month.y Cause Event_validity
    ##    <chr>   <chr>       <chr>   <chr>        <dbl>   <dbl> <chr> <chr>         
    ##  1 Algeria 17.4        Jan     11.2          2003       5 Eart~ Definite Tsun~
    ##  2 Algeria 17.4        Jan     11.2          1989      10 Eart~ Questionable ~
    ##  3 Algeria 17.4        Jan     11.2          1980      10 Eart~ Definite Tsun~
    ##  4 Algeria 17.4        Jan     11.2          1802      11 Eart~ Probable Tsun~
    ##  5 Algeria 17.4        Jan     11.2          1790      10 Eart~ Probable Tsun~
    ##  6 Algeria 17.4        Jan     11.2          1365       1 Eart~ Probable Tsun~
    ##  7 Algeria 17.4        Jan     11.2          1856       8 Eart~ Probable Tsun~
    ##  8 Algeria 17.4        Jan     11.2          1857       5 Eart~ Questionable ~
    ##  9 Algeria 17.4        Jan     11.2          1856       8 Eart~ Probable Tsun~
    ## 10 Algeria 17.4        Jan     11.2          1954       9 Eart~ Definite Tsun~
    ## # ... with 231,890 more rows, and 3 more variables: Eq_Magnitude <dbl>,
    ## #   Eq_Depth <dbl>, Ts_Intensity <dbl>
…
    ##        Country    annual_temp        Month.x   monthly_temp           Year 
    ##    "character"      "numeric"    "character"      "numeric"      "numeric" 
    ##        Month.y          Cause Event_validity   Eq_Magnitude       Eq_Depth 
    ##      "numeric"    "character"    "character"      "numeric"      "numeric" 
    ##   Ts_Intensity 
    ##      "numeric"

``` r
tsunami_temps2 #This new dataset now has columns 'monthly_temp' and 'annual_temp' both as numeric variables and not characters anymore. These can be used in summary statistics. 
```

    ## # A tibble: 39,192 x 11
    ##    Country annual_temp Month.x monthly_temp  Year Month.y Cause Event_validity
    ##    <chr>         <dbl> <chr>          <dbl> <dbl>   <dbl> <chr> <chr>         
    ##  1 Algeria        17.4 Jan             11.2  2003       5 Eart~ Definite Tsun~
    ##  2 Algeria        17.4 Jan             11.2  1980      10 Eart~ Definite Tsun~
    ##  3 Algeria        17.4 Feb             11.9  2003       5 Eart~ Definite Tsun~
    ##  4 Algeria        17.4 Feb             11.9  1980      10 Eart~ Definite Tsun~
    ##  5 Algeria        17.4 Mar             12.8  2003       5 Eart~ Definite Tsun~
    ##  6 Algeria        17.4 Mar             12.8  1980      10 Eart~ Definite Tsun~
    ##  7 Algeria        17.4 Apr             14.7  2003       5 Eart~ Definite Tsun~
    ##  8 Algeria        17.4 Apr             14.7  1980      10 Eart~ Definite Tsun~
    ##  9 Algeria        17.4 May             17.7  2003       5 Eart~ Definite Tsun~
    ## 10 Algeria        17.4 May             17.7  1980      10 Eart~ Definite Tsun~
    ## # ... with 39,182 more rows, and 3 more variables: Eq_Magnitude <dbl>,
    ## #   Eq_Depth <dbl>, Ts_Intensity <dbl>
…
``` r
#Bivariate analysis of numerical variables when grouped by annual temperatures 
tsunami_temps2%>%group_by(annual_temp)%>%summarize(across(where(is.numeric),~mean(.x,na.rm=TRUE)))
```

    ## # A tibble: 122 x 7
    ##    annual_temp monthly_temp  Year Month.y Eq_Magnitude Eq_Depth Ts_Intensity
    ##  *       <dbl>        <dbl> <dbl>   <dbl>        <dbl>    <dbl>        <dbl>
    ##  1       -14.4     -14.4    1928.    3.5          6.4      33         0     
    ##  2       -11.1     -11.1    1964.    7.09         7.18     32.3       0.0356
    ##  3        -9.3      -9.31   1928.    3.5          6.4      33         0     
    ##  4        -8.8      -8.75   1964.    7.09         7.18     32.3       0.0356
    ##  5        -4.3      -4.29   1928.    3.5          6.4      33         0     
    ##  6        -2.3      -2.27   1953.    6.13         7.21     24.6       0.130 
    ##  7        -0.1      -0.0750 1928.    3.5          6.4      33         0     
    ##  8         0.6       0.55   1964.    7.09         7.18     32.3       0.0356
    ##  9         1         0.983  1964.    7.09         7.18     32.3       0.0356
    ## 10         1.3       1.31   1964.    7.09         7.18     32.3       0.0356
    ## # ... with 112 more rows
…
    ## 
    ## Attaching package: 'rstatix'

    ## The following object is masked from 'package:stats':
    ## 
    ##     filter

``` r
tsunami_temps2%>%
  group_by(Event_validity) %>%
  identify_outliers(annual_temp)
```

    ## # A tibble: 1,032 x 13
    ##    Event_validity Country annual_temp Month.x monthly_temp  Year Month.y Cause
    ##    <chr>          <chr>         <dbl> <chr>          <dbl> <dbl>   <dbl> <chr>
    ##  1 Definite Tsun~ Russia        -11.1 Jan            -24.8  1841       5 Eart~
    ##  2 Definite Tsun~ Russia        -11.1 Jan            -24.8  1918      11 Eart~
    ##  3 Definite Tsun~ Russia        -11.1 Jan            -24.8  1904       6 Eart~
    ##  4 Definite Tsun~ Russia        -11.1 Jan            -24.8  1918       9 Eart~
    ##  5 Definite Tsun~ Russia        -11.1 Jan            -24.8  1933       1 Volc~
    ##  6 Definite Tsun~ Russia        -11.1 Jan            -24.8  1964       7 Eart~
    ##  7 Definite Tsun~ Russia        -11.1 Jan            -24.8  1968       1 Eart~
    ##  8 Definite Tsun~ Russia        -11.1 Jan            -24.8  1963      10 Eart~
    ##  9 Definite Tsun~ Russia        -11.1 Jan            -24.8  1961       2 Eart~
    ## 10 Definite Tsun~ Russia        -11.1 Jan            -24.8  1963      10 Eart~
    ## # ... with 1,022 more rows, and 5 more variables: Eq_Magnitude <dbl>,
    ## #   Eq_Depth <dbl>, Ts_Intensity <dbl>, is.outlier <lgl>, is.extreme <lgl>
…
